
        SetFactory("OpenCASCADE");

        length = 3; height = 1.5; t_w = 0.02;
        t_r = 0.02; l_r = 0.1; dist = 3.0;

        Box(1) = {0, 0, 0, length, t_w, height};

        Box(2) = {0.0-t_r/2, 0, 0, t_r, l_r, height}; 
Box(3) = {3.0-t_r/2, 0, 0, t_r, l_r, height}; 

vol[] = BooleanUnion { Volume{1}; Delete; } { Volume{2}; Volume{3};  Delete; };
        
        Printf('%g', vol[0]);

        Physical Volume("Volume") = {vol[0]};
        Physical Surface("front") = {1};
        Physical Surface("bottom") = {2};
        Physical Point("fixpoint") = {1};

        Mesh.MeshSizeMin = 0.02;
        Mesh.MeshSizeMax = 0.2;
        Mesh.SaveAll = 1;
        Mesh.ElementOrder = 2;

        Mesh 3;
        Save "wall_opt_0.msh";